{"success":true,"data":[{"id":"01hrxv4fnd9kh8vk73krqv8zd1","transaction_ref":"01HRXV4FND9KH8VK73KRQV8ZD0","type":"PAYROLL","amount":"1,000,000.00","narration":"SALARY\/{{$randomName}}","employee_name":"Moses George","status":"pending","date":"14\/03\/2024 @ 07:42AM"},{"id":"01hrxttbhx69xbhxdbydheg9mg","transaction_ref":"01HRXTTBHX69XBHXDBYDHEG9MF","type":"PAYROLL","amount":"1,000,000.00","narration":"SALARY\/Test Payroll","employee_name":"Test Tester","status":"pending","date":"14\/03\/2024 @ 07:36AM"},{"id":"01hrxttavxpje64teqb755mp3p","transaction_ref":"01HRXTTAVXPJE64TEQB755MP3N","type":"PAYROLL","amount":"83,333.33","narration":"SALARY\/Test Payroll","employee_name":"George Ebuka","status":"pending","date":"14\/03\/2024 @ 07:36AM"},{"id":"01hrxtta672teee12e6qjj6r4a","transaction_ref":"01HRXTTA660SV8RPEERPT0BZ22","type":"PAYROLL","amount":"1,000,000.00","narration":"SALARY\/Test Payroll","employee_name":"Moses George","status":"pending","date":"14\/03\/2024 @ 07:36AM"},{"id":"01hrsnecsbxtdm3bdqjphn9en3","transaction_ref":"01HRSNECSAYT1TGBMHATY8R7SM","type":"PAYROLL","amount":"1,000,000.00","narration":"SALARY\/Test Payroll","employee_name":"Test Tester","status":"pending","date":"12\/03\/2024 @ 04:45PM"},{"id":"01hrsnebypr4beyhyw1xebnzh0","transaction_ref":"01HRSNEBYPR4BEYHYW1XEBNZGZ","type":"PAYROLL","amount":"83,333.33","narration":"SALARY\/Test Payroll","employee_name":"George Ebuka","status":"pending","date":"12\/03\/2024 @ 04:45PM"},{"id":"01hrsneb462djv0w01ppx4xxbv","transaction_ref":"01HRSNEB45AKG10ECCRM934WKR","type":"PAYROLL","amount":"1,000,000.00","narration":"SALARY\/Test Payroll","employee_name":"Moses George","status":"pending","date":"12\/03\/2024 @ 04:45PM"},{"id":"01hrsn6h6te9pj0yehma220yb8","transaction_ref":"01HRSN6H6SZDJAPZMKV3QXBY79","type":"PAYROLL","amount":"1,000,000.00","narration":"SALARY\/{{$randomName}}","employee_name":"Moses George","status":"pending","date":"12\/03\/2024 @ 04:41PM"},{"id":"01hrs7bpxq35mjhby32zs28xgn","transaction_ref":"01HRS7BPXQ35MJHBY32ZS28XGM","type":"PAYROLL","amount":"1,000,000.00","narration":"SALARY\/AprilPayroll","employee_name":"Moses George","status":"pending","date":"12\/03\/2024 @ 12:39PM"},{"id":"01hrs7bp301b0ya7p2bmqp5dxc","transaction_ref":"01HRS7BP2ZYHEJS64ATRFA1G5C","type":"PAYROLL","amount":"1,000,000.00","narration":"SALARY\/AprilPayroll","employee_name":"Test Tester","status":"pending","date":"12\/03\/2024 @ 12:39PM"}],"pagination":{"current_page":1,"per_page":10,"total":12,"next_page_url":"http:\/\/salary.dev.onepipe.io\/api\/transaction?page=2","prev_page_url":null},"message":"List of transactions fetched successfully"}