{"success":true,"data":[{"id":"01hs8kbc9r0pz778hmmwcn9dnc","reference":"81E2113A16","status":"rejected","amount":"100000.00","tenor":"12.00 Months","reason":"House rent","amount_paid":"0.00","amount_outstanding":"0.00","loan_type":null,"employee":{"id":"01hrs72hsrep3fv695r8qh7vrp","name":"Test Tester","first_name":"Test","last_name":"Tester","email_address":"moses+3@assurdly.com","phone_number":"2348173854808","employement_date":"Mar 12, 2024","job_title":"QA Lead","annual_net_salary":"12000000.00","annual_gross_salary":"3600000.00","bank_details_id":"01hrs72hz3gckcdb26vqa8fbhw","virtual_account_details_id":"01hrs72j9vdc0z3z2dh9qa055f","business_name":"Assurdly Testers","status":"active","created_at":"12\/03\/2024 @ 12:34PM","bankDetails":{"id":"01hrs72hz3gckcdb26vqa8fbhw","account_name":"GEORGE  MOSES EBUKA","account_number":"2003057839","bank_name":"FCMB"},"virtualAccountDetails":{"id":"01hrs72j9vdc0z3z2dh9qa055f","account_name":"Test Tester","account_number":"1612490845","bank_name":"SUPPORT MICROFINANCE BANK"}}},{"id":"01hryw60kmjnj2tx99v2z30w1b","reference":"32396203C9","status":"pending","amount":"500000.00","tenor":"8.00 Months","reason":"Test","amount_paid":"0.00","amount_outstanding":"0.00","loan_type":{"id":1,"name":"Rent Loan","tenure":"8.00","eligible_percent_in_salary_gross":"10.00","deduction_percent_monthly":"5.00","created_at":"2024-03-13T23:47:06.000000Z","updated_at":"2024-03-13T23:47:06.000000Z"},"employee":{"id":"01hrs70m42mbpqppd9887nx0gc","name":"George Ebuka","first_name":"George","last_name":"Ebuka","email_address":"moses+2@assurdly.com","phone_number":"2348173854805","employement_date":"Mar 12, 2024","job_title":"QA","annual_net_salary":"1000000.00","annual_gross_salary":"3600000.00","bank_details_id":"01hrs70m9cx6fkmhcwvsv61wp3","virtual_account_details_id":"01hrs70mm1xdh6p5t1t9p01b0b","business_name":"Assurdly Testers","status":"active","created_at":"12\/03\/2024 @ 12:33PM","bankDetails":{"id":"01hrs70m9cx6fkmhcwvsv61wp3","account_name":"Moses  Ebuka George","account_number":"1007945290","bank_name":"VFD MFB"},"virtualAccountDetails":{"id":"01hrs70mm1xdh6p5t1t9p01b0b","account_name":"George Ebuka","account_number":"2041372568","bank_name":"SUPPORT MICROFINANCE BANK"}}},{"id":"01hryw60kt66hd3tcbvw4k3q77","reference":"3239621BAB","status":"pending","amount":"500000.00","tenor":"8.00 Months","reason":"Test","amount_paid":"0.00","amount_outstanding":"0.00","loan_type":{"id":1,"name":"Rent Loan","tenure":"8.00","eligible_percent_in_salary_gross":"10.00","deduction_percent_monthly":"5.00","created_at":"2024-03-13T23:47:06.000000Z","updated_at":"2024-03-13T23:47:06.000000Z"},"employee":{"id":"01hrs70m42mbpqppd9887nx0gc","name":"George Ebuka","first_name":"George","last_name":"Ebuka","email_address":"moses+2@assurdly.com","phone_number":"2348173854805","employement_date":"Mar 12, 2024","job_title":"QA","annual_net_salary":"1000000.00","annual_gross_salary":"3600000.00","bank_details_id":"01hrs70m9cx6fkmhcwvsv61wp3","virtual_account_details_id":"01hrs70mm1xdh6p5t1t9p01b0b","business_name":"Assurdly Testers","status":"active","created_at":"12\/03\/2024 @ 12:33PM","bankDetails":{"id":"01hrs70m9cx6fkmhcwvsv61wp3","account_name":"Moses  Ebuka George","account_number":"1007945290","bank_name":"VFD MFB"},"virtualAccountDetails":{"id":"01hrs70mm1xdh6p5t1t9p01b0b","account_name":"George Ebuka","account_number":"2041372568","bank_name":"SUPPORT MICROFINANCE BANK"}}},{"id":"01hryw60m1ztvfz578w6bvc4n7","reference":"32396235A3","status":"pending","amount":"500000.00","tenor":"8.00 Months","reason":"Test","amount_paid":"0.00","amount_outstanding":"0.00","loan_type":{"id":1,"name":"Rent Loan","tenure":"8.00","eligible_percent_in_salary_gross":"10.00","deduction_percent_monthly":"5.00","created_at":"2024-03-13T23:47:06.000000Z","updated_at":"2024-03-13T23:47:06.000000Z"},"employee":{"id":"01hrs70m42mbpqppd9887nx0gc","name":"George Ebuka","first_name":"George","last_name":"Ebuka","email_address":"moses+2@assurdly.com","phone_number":"2348173854805","employement_date":"Mar 12, 2024","job_title":"QA","annual_net_salary":"1000000.00","annual_gross_salary":"3600000.00","bank_details_id":"01hrs70m9cx6fkmhcwvsv61wp3","virtual_account_details_id":"01hrs70mm1xdh6p5t1t9p01b0b","business_name":"Assurdly Testers","status":"active","created_at":"12\/03\/2024 @ 12:33PM","bankDetails":{"id":"01hrs70m9cx6fkmhcwvsv61wp3","account_name":"Moses  Ebuka George","account_number":"1007945290","bank_name":"VFD MFB"},"virtualAccountDetails":{"id":"01hrs70mm1xdh6p5t1t9p01b0b","account_name":"George Ebuka","account_number":"2041372568","bank_name":"SUPPORT MICROFINANCE BANK"}}},{"id":"01hryw60mggwx1j5597fe2kjsx","reference":"3239627042","status":"pending","amount":"500000.00","tenor":"8.00 Months","reason":"Test","amount_paid":"0.00","amount_outstanding":"0.00","loan_type":{"id":1,"name":"Rent Loan","tenure":"8.00","eligible_percent_in_salary_gross":"10.00","deduction_percent_monthly":"5.00","created_at":"2024-03-13T23:47:06.000000Z","updated_at":"2024-03-13T23:47:06.000000Z"},"employee":{"id":"01hrs70m42mbpqppd9887nx0gc","name":"George Ebuka","first_name":"George","last_name":"Ebuka","email_address":"moses+2@assurdly.com","phone_number":"2348173854805","employement_date":"Mar 12, 2024","job_title":"QA","annual_net_salary":"1000000.00","annual_gross_salary":"3600000.00","bank_details_id":"01hrs70m9cx6fkmhcwvsv61wp3","virtual_account_details_id":"01hrs70mm1xdh6p5t1t9p01b0b","business_name":"Assurdly Testers","status":"active","created_at":"12\/03\/2024 @ 12:33PM","bankDetails":{"id":"01hrs70m9cx6fkmhcwvsv61wp3","account_name":"Moses  Ebuka George","account_number":"1007945290","bank_name":"VFD MFB"},"virtualAccountDetails":{"id":"01hrs70mm1xdh6p5t1t9p01b0b","account_name":"George Ebuka","account_number":"2041372568","bank_name":"SUPPORT MICROFINANCE BANK"}}},{"id":"01hryw60v3pa84kfvd011bwa0j","reference":"323965A7DF","status":"pending","amount":"500000.00","tenor":"8.00 Months","reason":"Test","amount_paid":"0.00","amount_outstanding":"0.00","loan_type":{"id":1,"name":"Rent Loan","tenure":"8.00","eligible_percent_in_salary_gross":"10.00","deduction_percent_monthly":"5.00","created_at":"2024-03-13T23:47:06.000000Z","updated_at":"2024-03-13T23:47:06.000000Z"},"employee":{"id":"01hrs70m42mbpqppd9887nx0gc","name":"George Ebuka","first_name":"George","last_name":"Ebuka","email_address":"moses+2@assurdly.com","phone_number":"2348173854805","employement_date":"Mar 12, 2024","job_title":"QA","annual_net_salary":"1000000.00","annual_gross_salary":"3600000.00","bank_details_id":"01hrs70m9cx6fkmhcwvsv61wp3","virtual_account_details_id":"01hrs70mm1xdh6p5t1t9p01b0b","business_name":"Assurdly Testers","status":"active","created_at":"12\/03\/2024 @ 12:33PM","bankDetails":{"id":"01hrs70m9cx6fkmhcwvsv61wp3","account_name":"Moses  Ebuka George","account_number":"1007945290","bank_name":"VFD MFB"},"virtualAccountDetails":{"id":"01hrs70mm1xdh6p5t1t9p01b0b","account_name":"George Ebuka","account_number":"2041372568","bank_name":"SUPPORT MICROFINANCE BANK"}}},{"id":"01hryw60x0v05wcwpxtq5kg2rw","reference":"3239669712","status":"pending","amount":"500000.00","tenor":"8.00 Months","reason":"Test","amount_paid":"0.00","amount_outstanding":"0.00","loan_type":{"id":1,"name":"Rent Loan","tenure":"8.00","eligible_percent_in_salary_gross":"10.00","deduction_percent_monthly":"5.00","created_at":"2024-03-13T23:47:06.000000Z","updated_at":"2024-03-13T23:47:06.000000Z"},"employee":{"id":"01hrs70m42mbpqppd9887nx0gc","name":"George Ebuka","first_name":"George","last_name":"Ebuka","email_address":"moses+2@assurdly.com","phone_number":"2348173854805","employement_date":"Mar 12, 2024","job_title":"QA","annual_net_salary":"1000000.00","annual_gross_salary":"3600000.00","bank_details_id":"01hrs70m9cx6fkmhcwvsv61wp3","virtual_account_details_id":"01hrs70mm1xdh6p5t1t9p01b0b","business_name":"Assurdly Testers","status":"active","created_at":"12\/03\/2024 @ 12:33PM","bankDetails":{"id":"01hrs70m9cx6fkmhcwvsv61wp3","account_name":"Moses  Ebuka George","account_number":"1007945290","bank_name":"VFD MFB"},"virtualAccountDetails":{"id":"01hrs70mm1xdh6p5t1t9p01b0b","account_name":"George Ebuka","account_number":"2041372568","bank_name":"SUPPORT MICROFINANCE BANK"}}},{"id":"01hryw60xgbjvcgyh7mzh2dq2h","reference":"323966D81C","status":"pending","amount":"500000.00","tenor":"8.00 Months","reason":"Test","amount_paid":"0.00","amount_outstanding":"0.00","loan_type":{"id":1,"name":"Rent Loan","tenure":"8.00","eligible_percent_in_salary_gross":"10.00","deduction_percent_monthly":"5.00","created_at":"2024-03-13T23:47:06.000000Z","updated_at":"2024-03-13T23:47:06.000000Z"},"employee":{"id":"01hrs70m42mbpqppd9887nx0gc","name":"George Ebuka","first_name":"George","last_name":"Ebuka","email_address":"moses+2@assurdly.com","phone_number":"2348173854805","employement_date":"Mar 12, 2024","job_title":"QA","annual_net_salary":"1000000.00","annual_gross_salary":"3600000.00","bank_details_id":"01hrs70m9cx6fkmhcwvsv61wp3","virtual_account_details_id":"01hrs70mm1xdh6p5t1t9p01b0b","business_name":"Assurdly Testers","status":"active","created_at":"12\/03\/2024 @ 12:33PM","bankDetails":{"id":"01hrs70m9cx6fkmhcwvsv61wp3","account_name":"Moses  Ebuka George","account_number":"1007945290","bank_name":"VFD MFB"},"virtualAccountDetails":{"id":"01hrs70mm1xdh6p5t1t9p01b0b","account_name":"George Ebuka","account_number":"2041372568","bank_name":"SUPPORT MICROFINANCE BANK"}}},{"id":"01hryw60zj96etpmz5xeqxvjb7","reference":"323967D63C","status":"pending","amount":"500000.00","tenor":"8.00 Months","reason":"Test","amount_paid":"0.00","amount_outstanding":"0.00","loan_type":{"id":1,"name":"Rent Loan","tenure":"8.00","eligible_percent_in_salary_gross":"10.00","deduction_percent_monthly":"5.00","created_at":"2024-03-13T23:47:06.000000Z","updated_at":"2024-03-13T23:47:06.000000Z"},"employee":{"id":"01hrs70m42mbpqppd9887nx0gc","name":"George Ebuka","first_name":"George","last_name":"Ebuka","email_address":"moses+2@assurdly.com","phone_number":"2348173854805","employement_date":"Mar 12, 2024","job_title":"QA","annual_net_salary":"1000000.00","annual_gross_salary":"3600000.00","bank_details_id":"01hrs70m9cx6fkmhcwvsv61wp3","virtual_account_details_id":"01hrs70mm1xdh6p5t1t9p01b0b","business_name":"Assurdly Testers","status":"active","created_at":"12\/03\/2024 @ 12:33PM","bankDetails":{"id":"01hrs70m9cx6fkmhcwvsv61wp3","account_name":"Moses  Ebuka George","account_number":"1007945290","bank_name":"VFD MFB"},"virtualAccountDetails":{"id":"01hrs70mm1xdh6p5t1t9p01b0b","account_name":"George Ebuka","account_number":"2041372568","bank_name":"SUPPORT MICROFINANCE BANK"}}},{"id":"01hrytbsr6r307fwc75rn8n18z","reference":"31C228A20A","status":"pending","amount":"4000000.00","tenor":"8.00 Months","reason":"For my new apartment","amount_paid":"0.00","amount_outstanding":"0.00","loan_type":{"id":1,"name":"Rent Loan","tenure":"8.00","eligible_percent_in_salary_gross":"10.00","deduction_percent_monthly":"5.00","created_at":"2024-03-13T23:47:06.000000Z","updated_at":"2024-03-13T23:47:06.000000Z"},"employee":{"id":"01hrs70m42mbpqppd9887nx0gc","name":"George Ebuka","first_name":"George","last_name":"Ebuka","email_address":"moses+2@assurdly.com","phone_number":"2348173854805","employement_date":"Mar 12, 2024","job_title":"QA","annual_net_salary":"1000000.00","annual_gross_salary":"3600000.00","bank_details_id":"01hrs70m9cx6fkmhcwvsv61wp3","virtual_account_details_id":"01hrs70mm1xdh6p5t1t9p01b0b","business_name":"Assurdly Testers","status":"active","created_at":"12\/03\/2024 @ 12:33PM","bankDetails":{"id":"01hrs70m9cx6fkmhcwvsv61wp3","account_name":"Moses  Ebuka George","account_number":"1007945290","bank_name":"VFD MFB"},"virtualAccountDetails":{"id":"01hrs70mm1xdh6p5t1t9p01b0b","account_name":"George Ebuka","account_number":"2041372568","bank_name":"SUPPORT MICROFINANCE BANK"}}}],"pagination":{"current_page":1,"per_page":10,"total":11,"next_page_url":"http:\/\/salary.dev.onepipe.io\/api\/loans?page=2","prev_page_url":null},"message":"Loans retrieved successfully"}