{"success":true,"data":[{"id":"01hry26qreahksj7ww6fq8p3xc","user_id":"01hrs6s9t6dk51n1cmsr82hnb8","event_type":"Invited team member","description":"Invited team member email - moses+1@assurdly.com","business_id":"01hrs6s94905154g8h2wekzd5d","date_created":"14\/03\/2024 @ 09:45AM","team_member":"Junius Becker"},{"id":"01hry22nxtbzvgd63ssdnjmrzv","user_id":"01hrs6s9t6dk51n1cmsr82hnb8","event_type":"Created role","description":"Created role with name - Greatdmin","business_id":"01hrs6s94905154g8h2wekzd5d","date_created":"14\/03\/2024 @ 09:43AM","team_member":"Junius Becker"},{"id":"01hry22dnt8exg8zfryqxrjfzy","user_id":"01hrs6s9t6dk51n1cmsr82hnb8","event_type":"Created role","description":"Created role with name - SuperAdmin","business_id":"01hrs6s94905154g8h2wekzd5d","date_created":"14\/03\/2024 @ 09:43AM","team_member":"Junius Becker"},{"id":"01hrxv5pbk6mmcfgsc7mx0h5z0","user_id":"01hrs6s9t6dk51n1cmsr82hnb8","event_type":"Declined payroll","description":"Declined payroll with name - AprilPayroll","business_id":"01hrs6s94905154g8h2wekzd5d","date_created":"14\/03\/2024 @ 07:42AM","team_member":"Junius Becker"},{"id":"01hrxv4ftx4prwhqpg0fw91bjc","user_id":"01hrs6s9t6dk51n1cmsr82hnb8","event_type":"Approved payroll","description":"Approved payroll with name - {{$randomName}}","business_id":"01hrs6s94905154g8h2wekzd5d","date_created":"14\/03\/2024 @ 07:42AM","team_member":"Junius Becker"},{"id":"01hrxv36fdvnqd5w1sagbm0g4h","user_id":"01hrs6s9t6dk51n1cmsr82hnb8","event_type":"Deleted employee from payroll","description":"Deleted employee from payroll with name - March Payroll","business_id":"01hrs6s94905154g8h2wekzd5d","date_created":"14\/03\/2024 @ 07:41AM","team_member":"Junius Becker"},{"id":"01hrxttbqeya6rx6pvmp60bg5z","user_id":"01hrs6s9t6dk51n1cmsr82hnb8","event_type":"Approved payroll","description":"Approved payroll with name - Test Payroll","business_id":"01hrs6s94905154g8h2wekzd5d","date_created":"14\/03\/2024 @ 07:36AM","team_member":"Junius Becker"},{"id":"01hrsned3ztqwdy5ktq40zrw01","user_id":"01hrs6s9t6dk51n1cmsr82hnb8","event_type":"Created payroll","description":"Created payroll with name - Test Payroll","business_id":"01hrs6s94905154g8h2wekzd5d","date_created":"12\/03\/2024 @ 04:45PM","team_member":"Junius Becker"},{"id":"01hrsn6hhhtyqtmwq2fa1k6qxc","user_id":"01hrs6s9t6dk51n1cmsr82hnb8","event_type":"Created payroll","description":"Created payroll with name - {{$randomName}}","business_id":"01hrs6s94905154g8h2wekzd5d","date_created":"12\/03\/2024 @ 04:41PM","team_member":"Junius Becker"},{"id":"01hrs7nkxg50y5he3pdrcrk6fk","user_id":"01hrs6s9t6dk51n1cmsr82hnb8","event_type":"Created role","description":"Created role with name - Head Admin","business_id":"01hrs6s94905154g8h2wekzd5d","date_created":"12\/03\/2024 @ 12:44PM","team_member":"Junius Becker"}],"pagination":{"current_page":1,"per_page":10,"total":15,"next_page_url":"http:\/\/salary.dev.onepipe.io\/api\/audit?page=2","prev_page_url":null},"message":"Audit trails retrieved successfully"}